<?xml version="1.0" encoding="utf-8"?>
<!-- Generator: Adobe Illustrator 19.2.1, SVG Export Plug-In . SVG Version: 6.00 Build 0)  -->
<svg version="1.1" id="Lager_1" xmlns="http://www.w3.org/2000/svg" xmlns:xlink="http://www.w3.org/1999/xlink" x="0px" y="0px"
   viewBox="0 0 156.9 149.5" style="enable-background:new 0 0 156.9 149.5;" xml:space="preserve">
<g>
  <path class="st0" d="M140.2,139.4H16.7L78.4,21.8L140.2,139.4z M78.4,0L0,149.5h156.9L78.4,0z M68.8,126.6c0-4.9,3.9-8.9,8.7-8.9
    c4.8,0,8.7,4,8.7,8.9c0,4.9-3.9,8.9-8.7,8.9C72.7,135.5,68.8,131.5,68.8,126.6L68.8,126.6z M81.1,46.2l2.7,1.2l3.3,2.6l1.4,2.7
    l0.8,3l-5.5,56.2l-0.9,1.4l-1.6,0.6h-6.8l-1-0.5l-1-1.4l-4.7-53.1l-0.1-2.3l0.5-4l2.5-3.7l4.4-2.3l3.6-0.6L81.1,46.2z"/>
</g>
</svg>
