<?xml version="1.0" encoding="utf-8"?>
<!-- Generator: Adobe Illustrator 19.1.0, SVG Export Plug-In . SVG Version: 6.00 Build 0)  -->
<svg version="1.1" id="Lager_1" xmlns="http://www.w3.org/2000/svg" xmlns:xlink="http://www.w3.org/1999/xlink" x="0px" y="0px"
	 viewBox="-164 42.3 512 512" style="enable-background:new -164 42.3 512 512;" xml:space="preserve">
<path id="book-17-icon" d="M257.4,200.7v195.2l-12.4,2V200.7v-39.5c-66.9,2-110.1,12.8-153,39.5C49.1,174,5.8,163.3-61,161.2v39.5
	v197.2l-12.4-2V200.7H-94v219H41.5c25.4,0,28.2,15.6,50.5,15.6c22.4,0,25.1-15.6,50.5-15.6H278v-219H257.4z M75,395.2
	c-33.4-13.3-53.9-21.8-103-25.5V197.2c40.4,3.4,68.6,11.6,103,33V395.2z M212,369.7c-49.1,3.7-69.6,12.2-103,25.5v-165
	c34.4-21.4,62.7-29.6,103-33V369.7z"/>
</svg>
