{
  "name": "Kontakt",
  "created": "2015-04-14T15:26:26.847625+02:00",
  "pages": [
    {
      "fieldSets": [
        {
          "caption": "",
          "sortOrder": 0,
          "id": "00000000-0000-0000-0000-000000000000",
          "page": "00000000-0000-0000-0000-000000000000",
          "containers": [
            {
              "caption": "",
              "width": 6,
              "fields": [
                {
                  "caption": "#Förnamn",
                  "tooltip": "",
                  "placeholder": null,
                  "cssClass": null,
                  "alias": "förnamn",
                  "id": "7c459e6b-8bcf-4fc6-91aa-7702f69641fc",
                  "fieldTypeId": "3f92e01b-29e2-4a30-bf33-9df5580ed52c",
                  "prevalueSourceId": "00000000-0000-0000-0000-000000000000",
                  "dataSourceFieldKey": null,
                  "mandatory": true,
                  "regex": null,
                  "requiredErrorMessage": "",
                  "invalidErrorMessage": "",
                  "condition": {
                    "id": "00000000-0000-0000-0000-000000000000",
                    "enabled": false,
                    "actionType": "Show",
                    "logicType": "All",
                    "rules": []
                  },
                  "settings": {
                    "DefaultValue": ""
                  },
                  "preValues": []
                },
                {
                  "caption": "#Efternamn",
                  "tooltip": "",
                  "placeholder": null,
                  "cssClass": null,
                  "alias": "efternamn",
                  "id": "124b9059-9cef-4ad3-aeb9-a9f0a287692b",
                  "fieldTypeId": "3f92e01b-29e2-4a30-bf33-9df5580ed52c",
                  "prevalueSourceId": "00000000-0000-0000-0000-000000000000",
                  "dataSourceFieldKey": null,
                  "mandatory": true,
                  "regex": null,
                  "requiredErrorMessage": "",
                  "invalidErrorMessage": "",
                  "condition": {
                    "id": "00000000-0000-0000-0000-000000000000",
                    "enabled": false,
                    "actionType": "Show",
                    "logicType": "All",
                    "rules": []
                  },
                  "settings": {
                    "DefaultValue": ""
                  },
                  "preValues": []
                }
              ]
            },
            {
              "caption": "",
              "width": 6,
              "fields": [
                {
                  "caption": "#E-post",
                  "tooltip": "",
                  "placeholder": null,
                  "cssClass": null,
                  "alias": "ePost",
                  "id": "c58fd0ba-730c-4b31-b378-c2d7b993c9f3",
                  "fieldTypeId": "3f92e01b-29e2-4a30-bf33-9df5580ed52c",
                  "prevalueSourceId": "00000000-0000-0000-0000-000000000000",
                  "dataSourceFieldKey": null,
                  "mandatory": true,
                  "regex": "^[_a-z0-9-]+(\\.[_a-z0-9-]+)*@[a-z0-9-]+(\\.[a-z0-9-]+)*(\\.[a-z]{2,4})$",
                  "requiredErrorMessage": "",
                  "invalidErrorMessage": "#EpostFelaktig",
                  "condition": {
                    "id": "00000000-0000-0000-0000-000000000000",
                    "enabled": false,
                    "actionType": "Show",
                    "logicType": "All",
                    "rules": []
                  },
                  "settings": {
                    "DefaultValue": ""
                  },
                  "preValues": []
                },
                {
                  "caption": "#Telefon",
                  "tooltip": "",
                  "placeholder": null,
                  "cssClass": null,
                  "alias": "telefon",
                  "id": "13c2440b-706a-47ba-ae73-fd03a8d06337",
                  "fieldTypeId": "3f92e01b-29e2-4a30-bf33-9df5580ed52c",
                  "prevalueSourceId": "00000000-0000-0000-0000-000000000000",
                  "dataSourceFieldKey": null,
                  "mandatory": true,
                  "regex": null,
                  "requiredErrorMessage": "",
                  "invalidErrorMessage": "",
                  "condition": {
                    "id": "00000000-0000-0000-0000-000000000000",
                    "enabled": false,
                    "actionType": "Show",
                    "logicType": "All",
                    "rules": []
                  },
                  "settings": {
                    "DefaultValue": ""
                  },
                  "preValues": []
                }
              ]
            }
          ]
        },
        {
          "caption": null,
          "sortOrder": 0,
          "id": "00000000-0000-0000-0000-000000000000",
          "page": "00000000-0000-0000-0000-000000000000",
          "containers": [
            {
              "caption": null,
              "width": 12,
              "fields": [
                {
                  "caption": "#Meddelande",
                  "tooltip": "",
                  "placeholder": null,
                  "cssClass": null,
                  "alias": "meddelande",
                  "id": "05f60b0c-81ef-4af2-b7d3-5765db1a8800",
                  "fieldTypeId": "023f09ac-1445-4bcb-b8fa-ab49f33bd046",
                  "prevalueSourceId": "00000000-0000-0000-0000-000000000000",
                  "dataSourceFieldKey": null,
                  "mandatory": true,
                  "regex": null,
                  "requiredErrorMessage": "",
                  "invalidErrorMessage": "",
                  "condition": {
                    "id": "00000000-0000-0000-0000-000000000000",
                    "enabled": false,
                    "actionType": "Show",
                    "logicType": "All",
                    "rules": []
                  },
                  "settings": {
                    "DefaultValue": ""
                  },
                  "preValues": []
                }
              ]
            }
          ]
        },
        {
          "caption": null,
          "sortOrder": 0,
          "id": "00000000-0000-0000-0000-000000000000",
          "page": "00000000-0000-0000-0000-000000000000",
          "containers": [
            {
              "caption": null,
              "width": 12,
              "fields": []
            }
          ]
        }
      ],
      "caption": "Kontakt",
      "sortOrder": 0,
      "id": "00000000-0000-0000-0000-000000000000",
      "form": "00000000-0000-0000-0000-000000000000"
    }
  ],
  "id": "b309e0ab-4f9b-43ab-9663-06a078814bf4",
  "fieldIndicationType": "MarkMandatoryFields",
  "indicator": "*",
  "showValidationSummary": true,
  "hideFieldValidation": true,
  "requiredErrorMessage": "#Obligatoriskt",
  "invalidErrorMessage": "",
  "messageOnSubmit": "#TackMeddelande",
  "goToPageOnSubmit": 0,
  "xPathOnSubmit": null,
  "manualApproval": false,
  "storeRecordsLocally": true,
  "cssClass": null,
  "disableDefaultStylesheet": true,
  "useClientDependency": false,
  "workflows": [
    "5c09854d-f6ba-4318-ad84-98fdd399b30e",
    "14627e05-0bd9-4d45-a0c1-e085b53ac2f0"
  ],
  "datasource": null,
  "submitLabel": "#Skicka",
  "nextLabel": "Next",
  "prevLabel": "Previous"
}