{
  "name": "Bokning_Sagostubbeprojektet",
  "created": "2016-12-06T11:29:20.796625+01:00",
  "pages": [
    {
      "fieldSets": [
        {
          "caption": "",
          "sortOrder": 0,
          "id": "67ab4ee0-5564-45f8-a0d6-96c7a9f0c580",
          "page": "00000000-0000-0000-0000-000000000000",
          "containers": [
            {
              "caption": "",
              "width": 6,
              "fields": [
                {
                  "caption": "Skola",
                  "tooltip": null,
                  "placeholder": null,
                  "cssClass": null,
                  "alias": "skola",
                  "id": "e77ac229-7799-492d-b666-e56d7d6adced",
                  "fieldTypeId": "3f92e01b-29e2-4a30-bf33-9df5580ed52c",
                  "prevalueSourceId": "00000000-0000-0000-0000-000000000000",
                  "dataSourceFieldKey": null,
                  "mandatory": true,
                  "regex": null,
                  "requiredErrorMessage": null,
                  "invalidErrorMessage": null,
                  "condition": {
                    "id": "00000000-0000-0000-0000-000000000000",
                    "enabled": false,
                    "actionType": "Show",
                    "logicType": "All",
                    "rules": []
                  },
                  "settings": {
                    "DefaultValue": "",
                    "Placeholder": ""
                  },
                  "preValues": []
                },
                {
                  "caption": "Klass/årskurs",
                  "tooltip": null,
                  "placeholder": null,
                  "cssClass": null,
                  "alias": "klassÅrskurs",
                  "id": "588e5234-f4f2-442d-d631-e94bc9195b2c",
                  "fieldTypeId": "3f92e01b-29e2-4a30-bf33-9df5580ed52c",
                  "prevalueSourceId": "00000000-0000-0000-0000-000000000000",
                  "dataSourceFieldKey": null,
                  "mandatory": true,
                  "regex": null,
                  "requiredErrorMessage": null,
                  "invalidErrorMessage": null,
                  "condition": {
                    "id": "00000000-0000-0000-0000-000000000000",
                    "enabled": false,
                    "actionType": "Show",
                    "logicType": "All",
                    "rules": []
                  },
                  "settings": {
                    "DefaultValue": "",
                    "Placeholder": ""
                  },
                  "preValues": []
                },
                {
                  "caption": "Ort och kommun",
                  "tooltip": null,
                  "placeholder": null,
                  "cssClass": null,
                  "alias": "ortOchKommun",
                  "id": "12f39cba-aaa9-4a5a-da3d-fbb59c4cee10",
                  "fieldTypeId": "3f92e01b-29e2-4a30-bf33-9df5580ed52c",
                  "prevalueSourceId": "00000000-0000-0000-0000-000000000000",
                  "dataSourceFieldKey": null,
                  "mandatory": true,
                  "regex": null,
                  "requiredErrorMessage": null,
                  "invalidErrorMessage": null,
                  "condition": {
                    "id": "00000000-0000-0000-0000-000000000000",
                    "enabled": false,
                    "actionType": "Show",
                    "logicType": "All",
                    "rules": []
                  },
                  "settings": {
                    "DefaultValue": "",
                    "Placeholder": ""
                  },
                  "preValues": []
                }
              ]
            },
            {
              "caption": "",
              "width": 6,
              "fields": [
                {
                  "caption": "Kontaktperson",
                  "tooltip": null,
                  "placeholder": null,
                  "cssClass": null,
                  "alias": "kontaktperson",
                  "id": "60d40b68-f08c-4e9c-f4a0-9f09cccc2957",
                  "fieldTypeId": "3f92e01b-29e2-4a30-bf33-9df5580ed52c",
                  "prevalueSourceId": "00000000-0000-0000-0000-000000000000",
                  "dataSourceFieldKey": null,
                  "mandatory": true,
                  "regex": null,
                  "requiredErrorMessage": null,
                  "invalidErrorMessage": null,
                  "condition": {
                    "id": "00000000-0000-0000-0000-000000000000",
                    "enabled": false,
                    "actionType": "Show",
                    "logicType": "All",
                    "rules": []
                  },
                  "settings": {
                    "DefaultValue": "",
                    "Placeholder": ""
                  },
                  "preValues": []
                },
                {
                  "caption": "E-postadress",
                  "tooltip": null,
                  "placeholder": null,
                  "cssClass": null,
                  "alias": "ePostadress",
                  "id": "a8bfe103-42c6-4e76-e941-7233a1f5d4c3",
                  "fieldTypeId": "3f92e01b-29e2-4a30-bf33-9df5580ed52c",
                  "prevalueSourceId": "00000000-0000-0000-0000-000000000000",
                  "dataSourceFieldKey": null,
                  "mandatory": true,
                  "regex": "[a-zA-Z0-9_.+-]+@[a-zA-Z0-9-]+.[a-zA-Z0-9-.]+",
                  "requiredErrorMessage": null,
                  "invalidErrorMessage": null,
                  "condition": {
                    "id": "00000000-0000-0000-0000-000000000000",
                    "enabled": false,
                    "actionType": "Show",
                    "logicType": "All",
                    "rules": []
                  },
                  "settings": {
                    "DefaultValue": "",
                    "Placeholder": ""
                  },
                  "preValues": []
                },
                {
                  "caption": "Mobilnr",
                  "tooltip": null,
                  "placeholder": null,
                  "cssClass": null,
                  "alias": "mobilnr",
                  "id": "26f92df7-da0f-4f5a-9023-e00861f3ad11",
                  "fieldTypeId": "3f92e01b-29e2-4a30-bf33-9df5580ed52c",
                  "prevalueSourceId": "00000000-0000-0000-0000-000000000000",
                  "dataSourceFieldKey": null,
                  "mandatory": true,
                  "regex": null,
                  "requiredErrorMessage": null,
                  "invalidErrorMessage": null,
                  "condition": {
                    "id": "00000000-0000-0000-0000-000000000000",
                    "enabled": false,
                    "actionType": "Show",
                    "logicType": "All",
                    "rules": []
                  },
                  "settings": {
                    "DefaultValue": "",
                    "Placeholder": ""
                  },
                  "preValues": []
                }
              ]
            }
          ],
          "condition": {
            "id": "00000000-0000-0000-0000-000000000000",
            "enabled": false,
            "actionType": "Show",
            "logicType": "All",
            "rules": []
          }
        },
        {
          "caption": "",
          "sortOrder": 0,
          "id": "39b1a7ae-3574-482e-a92c-bb7bcd36f890",
          "page": "00000000-0000-0000-0000-000000000000",
          "containers": [
            {
              "caption": "",
              "width": 6,
              "fields": [
                {
                  "caption": "Antal elever",
                  "tooltip": null,
                  "placeholder": null,
                  "cssClass": null,
                  "alias": "antalElever",
                  "id": "941e757a-bacb-46a8-f81d-ade292af3958",
                  "fieldTypeId": "3f92e01b-29e2-4a30-bf33-9df5580ed52c",
                  "prevalueSourceId": "00000000-0000-0000-0000-000000000000",
                  "dataSourceFieldKey": null,
                  "mandatory": true,
                  "regex": null,
                  "requiredErrorMessage": null,
                  "invalidErrorMessage": null,
                  "condition": {
                    "id": "00000000-0000-0000-0000-000000000000",
                    "enabled": false,
                    "actionType": "Show",
                    "logicType": "All",
                    "rules": []
                  },
                  "settings": {
                    "DefaultValue": "",
                    "Placeholder": ""
                  },
                  "preValues": []
                }
              ]
            },
            {
              "caption": "",
              "width": 6,
              "fields": [
                {
                  "caption": "Antal pedagoger",
                  "tooltip": null,
                  "placeholder": null,
                  "cssClass": null,
                  "alias": "antalPedagoger",
                  "id": "28dd6ec8-9528-4194-8858-815b08577348",
                  "fieldTypeId": "3f92e01b-29e2-4a30-bf33-9df5580ed52c",
                  "prevalueSourceId": "00000000-0000-0000-0000-000000000000",
                  "dataSourceFieldKey": null,
                  "mandatory": true,
                  "regex": null,
                  "requiredErrorMessage": null,
                  "invalidErrorMessage": null,
                  "condition": {
                    "id": "00000000-0000-0000-0000-000000000000",
                    "enabled": false,
                    "actionType": "Show",
                    "logicType": "All",
                    "rules": []
                  },
                  "settings": {
                    "DefaultValue": "",
                    "Placeholder": ""
                  },
                  "preValues": []
                }
              ]
            }
          ],
          "condition": {
            "id": "00000000-0000-0000-0000-000000000000",
            "enabled": false,
            "actionType": "Show",
            "logicType": "All",
            "rules": []
          }
        },
        {
          "caption": "",
          "sortOrder": 0,
          "id": "ea1b36aa-b4cf-48db-dd69-53b33ff7cced",
          "page": "00000000-0000-0000-0000-000000000000",
          "containers": [
            {
              "caption": "",
              "width": 6,
              "fields": [
                {
                  "caption": "Bussupphämtningsadress vid skolan",
                  "tooltip": null,
                  "placeholder": null,
                  "cssClass": null,
                  "alias": "bussupphämtningsadressVidSkolan",
                  "id": "252d5b7c-a82a-4e4e-8daf-d2425fd6fbda",
                  "fieldTypeId": "023f09ac-1445-4bcb-b8fa-ab49f33bd046",
                  "prevalueSourceId": "00000000-0000-0000-0000-000000000000",
                  "dataSourceFieldKey": null,
                  "mandatory": true,
                  "regex": null,
                  "requiredErrorMessage": null,
                  "invalidErrorMessage": null,
                  "condition": {
                    "id": "00000000-0000-0000-0000-000000000000",
                    "enabled": false,
                    "actionType": "Show",
                    "logicType": "All",
                    "rules": []
                  },
                  "settings": {},
                  "preValues": []
                }
              ]
            },
            {
              "caption": "",
              "width": 6,
              "fields": [
                {
                  "caption": "Ev dagar då ni absolut inte kan",
                  "tooltip": null,
                  "placeholder": null,
                  "cssClass": null,
                  "alias": "evDagarDåNiAbsolutInteKan",
                  "id": "2a58cd09-97d1-415b-fd68-bfd4d00da7bb",
                  "fieldTypeId": "023f09ac-1445-4bcb-b8fa-ab49f33bd046",
                  "prevalueSourceId": "00000000-0000-0000-0000-000000000000",
                  "dataSourceFieldKey": null,
                  "mandatory": false,
                  "regex": null,
                  "requiredErrorMessage": null,
                  "invalidErrorMessage": null,
                  "condition": {
                    "id": "00000000-0000-0000-0000-000000000000",
                    "enabled": false,
                    "actionType": "Show",
                    "logicType": "All",
                    "rules": []
                  },
                  "settings": {},
                  "preValues": []
                }
              ]
            }
          ],
          "condition": {
            "id": "00000000-0000-0000-0000-000000000000",
            "enabled": false,
            "actionType": "Show",
            "logicType": "All",
            "rules": []
          }
        },
        {
          "caption": "",
          "sortOrder": 0,
          "id": "aa7729b3-513d-4517-b848-37c8e1457fdf",
          "page": "00000000-0000-0000-0000-000000000000",
          "containers": [
            {
              "caption": "",
              "width": 12,
              "fields": [
                {
                  "caption": "Övrig info om klassen/eleverna",
                  "tooltip": null,
                  "placeholder": null,
                  "cssClass": null,
                  "alias": "övrigInfoOmKlassenEleverna",
                  "id": "8fc5388d-ab74-4924-e290-41dcfaa78d95",
                  "fieldTypeId": "023f09ac-1445-4bcb-b8fa-ab49f33bd046",
                  "prevalueSourceId": "00000000-0000-0000-0000-000000000000",
                  "dataSourceFieldKey": null,
                  "mandatory": false,
                  "regex": null,
                  "requiredErrorMessage": null,
                  "invalidErrorMessage": null,
                  "condition": {
                    "id": "00000000-0000-0000-0000-000000000000",
                    "enabled": false,
                    "actionType": "Show",
                    "logicType": "All",
                    "rules": []
                  },
                  "settings": {
                    "DefaultValue": "",
                    "Placeholder": ""
                  },
                  "preValues": []
                }
              ]
            }
          ],
          "condition": {
            "id": "00000000-0000-0000-0000-000000000000",
            "enabled": false,
            "actionType": "Show",
            "logicType": "All",
            "rules": []
          }
        }
      ],
      "caption": "Bokningsförfrågan",
      "sortOrder": 0,
      "id": "00000000-0000-0000-0000-000000000000",
      "form": "00000000-0000-0000-0000-000000000000"
    }
  ],
  "id": "f8aad4dd-ff5b-4914-ab6f-d626321e6e76",
  "fieldIndicationType": "MarkMandatoryFields",
  "indicator": "*",
  "showValidationSummary": true,
  "hideFieldValidation": true,
  "requiredErrorMessage": "{0} är obligatoriskt.",
  "invalidErrorMessage": "{0} är inte rätt ifyllt.",
  "messageOnSubmit": "<strong>Tack för din bokningsförfrågan!</strong><br/>\nVi kommer att höra av oss inom kort.<br/>\nMvh<br/>\n/Stiftelsen Skånska Landskap",
  "goToPageOnSubmit": 0,
  "xPathOnSubmit": null,
  "manualApproval": false,
  "storeRecordsLocally": true,
  "cssClass": null,
  "disableDefaultStylesheet": true,
  "useClientDependency": false,
  "workflows": [
    "6f943461-ce07-4d9e-a643-1936e22a117e"
  ],
  "datasource": null,
  "submitLabel": "Skicka",
  "nextLabel": "Next",
  "prevLabel": "Previous"
}