{
  "id": "14627e05-0bd9-4d45-a0c1-e085b53ac2f0",
  "name": "Send email to visitor",
  "form": "b309e0ab-4f9b-43ab-9663-06a078814bf4",
  "active": true,
  "workflowTypeId": "e96badd7-05be-4978-b8d9-b3d733de70a5",
  "executesOn": "Submitted",
  "settings": {
    "Email": "{epost}",
    "Subject": "#KontaktTackEpostÄmne",
    "Message": "#KontaktTackEpostText",
    "SenderEmail": ""
  },
  "sortOrder": 0
}