{
  "id": "1b088cff-fd63-45c0-b32b-dd6f5ec04283",
  "name": "Send email to admin@givakt.se when submitted",
  "form": "ee913cc9-235f-4027-b1a5-78ea9ad92487",
  "active": true,
  "workflowTypeId": "e96badd7-05be-4978-b8d9-b3d733de70a5",
  "executesOn": "Submitted",
  "settings": {
    "Email": "admin@givakt.se",
    "Subject": "the form Kontakt_Bokning was submitted",
    "Message": "the form Kontakt_Bokning was submitted, this is the list of values it contained, you can turn this email off under workflows in Umbraco Contour"
  },
  "sortOrder": 0
}