{
  "id": "3c7351e3-4e5f-4787-b7c4-bc6b7acaacf5",
  "name": "Send email to admin@givakt.se when submitted",
  "form": "64e9d4ee-5439-428b-91d6-4ce97110c31b",
  "active": true,
  "workflowTypeId": "e96badd7-05be-4978-b8d9-b3d733de70a5",
  "executesOn": "Submitted",
  "settings": {
    "Email": "admin@givakt.se",
    "Subject": "the form Test was submitted",
    "Message": "the form Test was submitted, this is the list of values it contained, you can turn this email off under workflows in Umbraco Contour"
  },
  "sortOrder": 0
}