{
  "id": "4ecb9d89-a92d-46cd-8ae6-e3b8dbe27080",
  "name": "Send email to jan.bengtsson@givakt.se",
  "form": "b6691c3d-7610-459f-ad50-0a692306db41",
  "active": true,
  "workflowTypeId": "e96badd7-05be-4978-b8d9-b3d733de70a5",
  "executesOn": "Submitted",
  "settings": {
    "Email": "jan.bengtsson@givakt.se",
    "SenderEmail": "",
    "Subject": "Mail från skanskalandskap.se/skola – Bokning Snogespelen...",
    "Message": "En bokningsförfrågan har skickats angående Snogespelen. Här är uppgifterna som angavs i formuläret:",
    "Attachment": ""
  },
  "sortOrder": 1
}