{
  "id": "70234da0-e967-4a7a-9293-10679a86fafe",
  "name": "Send email to admin@givakt.se when submitted",
  "form": "486b5045-74fa-467f-9846-71a1e083290d",
  "active": true,
  "workflowTypeId": "e96badd7-05be-4978-b8d9-b3d733de70a5",
  "executesOn": "Submitted",
  "settings": {
    "Email": "admin@givakt.se",
    "Subject": "the form Test was submitted",
    "Message": "the form Test was submitted, this is the list of values it contained, you can turn this email off under workflows in Umbraco Contour"
  },
  "sortOrder": 0
}