{
  "id": "7a5229d1-9de3-43b0-9504-1d9d78a84c74",
  "name": "Send email to admin@givakt.se when submitted",
  "form": "6cb5b974-a76e-41fd-8026-45b2fa81ed6d",
  "active": true,
  "workflowTypeId": "e96badd7-05be-4978-b8d9-b3d733de70a5",
  "executesOn": "Submitted",
  "settings": {
    "Email": "admin@givakt.se",
    "Subject": "the form Kontakt_Bokning was submitted",
    "Message": "the form Kontakt_Bokning was submitted, this is the list of values it contained, you can turn this email off under workflows in Umbraco Contour"
  },
  "sortOrder": 0
}