{
  "id": "8ea5d225-15c8-4716-b932-317d30504636",
  "name": "Send email to admin@givakt.se when submitted",
  "form": "e02ea340-2513-431c-9ad4-70cbb1c05bfc",
  "active": true,
  "workflowTypeId": "e96badd7-05be-4978-b8d9-b3d733de70a5",
  "executesOn": "Submitted",
  "settings": {
    "Email": "admin@givakt.se",
    "Subject": "the form Kolumntest 2 was submitted",
    "Message": "the form Kolumntest 2 was submitted, this is the list of values it contained, you can turn this email off under workflows in Umbraco Contour"
  },
  "sortOrder": 0
}