{
  "id": "a6ffdb57-53a1-4d8e-882d-9bee71523dba",
  "name": "Send email to jan.bengtsson@givakt.se",
  "form": "d74bf571-b3d4-45cd-a174-4ce6e7afd960",
  "active": true,
  "workflowTypeId": "e96badd7-05be-4978-b8d9-b3d733de70a5",
  "executesOn": "Submitted",
  "settings": {
    "Email": "jan.bengtsson@givakt.se",
    "SenderEmail": "",
    "Subject": "Mail från skanskalandskap.se/skola – Bokning Snogespelen...",
    "Message": "En bokningsförfrågan har skickats angående Snogespelen. Här är uppgifterna som angavs i formuläret:",
    "Attachment": ""
  },
  "sortOrder": 1
}